{
  "name": "SpaceEvent",
  "fields": [
    {
      "fieldName": "name",
      "fieldType": "String",
      "fieldValidateRules": [
        "required"
      ]
    },
    {
      "fieldName": "date",
      "fieldType": "LocalDate",
      "fieldValidateRules": [
        "required"
      ]
    },
    {
      "fieldName": "description",
      "fieldType": "byte[]",
      "fieldTypeBlobContent": "text",
      "fieldValidateRules": [
        "required"
      ]
    },
    {
      "fieldName": "photo",
      "fieldType": "byte[]",
      "fieldTypeBlobContent": "image",
      "fieldValidateRules": [
        "required"
      ]
    },
    {
      "fieldName": "type",
      "fieldType": "SpaceEventType",
      "fieldValues": "LAUNCH,LANDING",
      "fieldValidateRules": [
        "required"
      ]
    }
  ],
  "relationships": [
    {
      "relationshipType": "one-to-one",
      "otherEntityName": "mission",
      "otherEntityRelationshipName": "spaceEvent",
      "relationshipName": "mission",
      "otherEntityField": "name",
      "ownerSide": true
    }
  ],
  "changelogDate": "20210331171804",
  "entityTableName": "space_event",
  "dto": "no",
  "pagination": "infinite-scroll",
  "service": "serviceClass",
  "jpaMetamodelFiltering": true,
  "fluentMethods": true,
  "readOnly": false,
  "embedded": false,
  "clientRootFolder": "",
  "applications": "*"
}
